1.3 tidyverse4 | 資料 Rで社会経済データの取得 (work in progress)
…
1.3.2 特定の列を抽出する - select()関数

つぎに特定の列、言いかえれば変数を抽出してみます.　このためにはselect()関数を利用します.

  select(データフレーム名, 抽出する変数名)

たとえば、データセットpopulationから変数yearと変数populationを取り出してみます.このためにはselect()関数に次のように入力するだけです.

  select(population,year,population)

## # A tibble: 4,060 × 2
##     year population
##    <int>      <int>
##  1  1995   17586073
##  2  1996   18415307
##  3  1997   19021226
##  4  1998   19496836
##  5  1999   19987071
##  6  2000   20595360
##  7  2001   21347782
##  8  2002   22202806
##  9  2003   23116142
## 10  2004   24018682
## # … with 4,050 more rows
…
