6 SNSデータ & テキスト分析 - tidytext | 資料 Rで社会経済データの取得 (work in progress)
…
   seach_tweets(q="検索語",n = 取得するツイッターの数)

q= “corona virus”と入力すると,“corona”と“virus”の両方の検索語と含んだツイートを探します.つまり検索語の間にスペースを容れると,and検索になります.OR検索を利用する場合は,q=“corona OR virus”とします.

取得できるツィート数にはAPIの制限があります.ツィーターの場合は,6～9日分の過去のツイート,1回のAPIコールで18,000ツイート,1時間に100回のリクエストに制限されています.このため特定のイベント（例えば自然災害や選挙やなど）についてデータを集めるさいには,先を考えてデータ収集を行う必要があります.

それでは新型コロナウィルスに関するツイートを集めてみましょう.新型コロナウィルスに関連した検索後としては“covid-19”, “coronavirus”が考えられます.両方のいずれかを含む（つまりOR検索）ツイートを探してみましょう.上限を18,000ツイートとしておきます.さらに,リツイートは除外するために,include_rts=FALSE（リツイートを含める場合はTRUEです）を入れ,言語を英語に指定するために,引数lang=“en”と指定します.そして結果をオブジェクトtweet_covidに容れます.

  tweet_covid <- search_tweets(q="covid-19 OR coronavirus", n = 18000,include_rts = FALSE,lang = "en")

これによってtweet_covidというデータフレームが出来上がります.コンソール画面に次のように入力すれば内容が表示されます.

  tweet_covid

## # A tibble: 18,000 × 90
##    user_id status_id created_at          screen_name     text       source
##      <dbl>     <dbl> <dttm>              <chr>           <chr>      <chr> 
##  1 1.05e18   1.43e18 2021-08-26 23:24:41 LINA05564177    "@CDCofBC… Twitt…
##  2 4.92e 8   1.43e18 2021-08-26 23:24:40 LeroyWesterling "Let’s b…  Twitt…
##  3 7.24e17   1.43e18 2021-08-26 23:24:39 demsdestroyUS11 "The enti… Twitt…
##  4 7.24e17   1.43e18 2021-08-26 23:23:39 demsdestroyUS11 "The enti… Twitt…
##  5 4.12e 7   1.43e18 2021-08-26 20:56:48 scottawanga     "She coul… Twitt…
##  6 4.12e 7   1.43e18 2021-08-26 23:24:37 scottawanga     "You gott… Twitt…
##  7 1.75e 8   1.43e18 2021-08-26 23:24:37 cgilmart        "Where’s…  Twitt…
##  8 1.22e18   1.43e18 2021-08-26 23:24:35 ComishWeinroth  "Only 7 I… Twitt…
##  9 4.06e 7   1.43e18 2021-08-26 23:24:33 dankatzradio    "Judge Ka… Twitt…
## 10 1.90e 9   1.43e18 2021-08-26 23:24:32 pressprogress   "The US F… Twitt…
## # … with 17,990 more rows, and 84 more variables:
## #   display_text_width <dbl>, reply_to_status_id <dbl>,
## #   reply_to_user_id <dbl>, reply_to_screen_name <chr>, is_quote <lgl>,
## #   is_retweet <lgl>, favorite_count <dbl>, retweet_count <dbl>,
## #   quote_count <lgl>, reply_count <lgl>, hashtags <lgl>, symbols <lgl>,
## #   urls_url <lgl>, urls_t.co <lgl>, urls_expanded_url <lgl>,
## #   media_url <lgl>, media_t.co <lgl>, media_expanded_url <lgl>, …
…
